{
    "orders": [
    {
        "code": "14000133596",
        "guid": "8ee7bdad-c110-40c7-be37-70859d1f2c9b",
        "placed": "2016-08-12T10:22:22+0000",
        "status": "PAYMENT_PROGRESS",
        "statusDisplay": "processing",
        "total": {
            "currencyIso": "USD",
            "formattedValue": "$111.97",
            "priceType": "BUY",
            "value": 111.97
        }
    },
    {
        "code": "14000091502",
        "guid": "0aa30c8d-b134-417a-ae56-409fcc2a6e2e",
        "placed": "2016-08-11T15:48:07+0000",
        "status": "PAYMENT_PROGRESS",
        "statusDisplay": "processing",
        "total": {
            "currencyIso": "USD",
            "formattedValue": "$33.59",
            "priceType": "BUY",
            "value": 33.59
        }
    },
    {
        "code": "14000091449",
        "guid": "4c8eb0b4-454f-4918-a62e-d0318a8fdbe1",
        "placed": "2016-08-11T10:37:37+0000",
        "status": "PAYMENT_PROGRESS",
        "statusDisplay": "processing",
        "total": {
            "currencyIso": "USD",
            "formattedValue": "$503.95",
            "priceType": "BUY",
            "value": 503.95
        }
    },
    {
        "code": "14000090999",
        "guid": "2116f2a0-62ec-4e33-ba09-f7b0f49ca2c2",
        "placed": "2016-08-09T08:50:43+0000",
        "status": "PAYMENT_PROGRESS",
        "statusDisplay": "processing",
        "total": {
            "currencyIso": "USD",
            "formattedValue": "$46.63",
            "priceType": "BUY",
            "value": 46.63
        }
    },
    {
        "code": "14000090949",
        "guid": "db13d98a-33be-4d06-972d-e481ac5a33ab",
        "placed": "2016-08-09T07:18:27+0000",
        "status": "PAYMENT_PROGRESS",
        "statusDisplay": "processing",
        "total": {
            "currencyIso": "USD",
            "formattedValue": "$369.52",
            "priceType": "BUY",
            "value": 369.52
        }
    },
    {
        "code": "14000090794",
        "guid": "56107465-cba8-4918-b23c-e6a50a6fe5ea",
        "placed": "2016-08-08T11:05:43+0000",
        "status": "PAYMENT_PROGRESS",
        "statusDisplay": "processing",
        "total": {
            "currencyIso": "USD",
            "formattedValue": "$93.26",
            "priceType": "BUY",
            "value": 93.26
        }
    },
    {
        "code": "14000090771",
        "guid": "51ba4fa1-af97-499c-b35c-dc4c191bc488",
        "placed": "2016-08-08T09:50:40+0000",
        "statusDisplay": "processing",
        "total": {
            "currencyIso": "USD",
            "formattedValue": "$35.87",
            "priceType": "BUY",
            "value": 35.87
        }
    },
    {
        "code": "14000090768",
        "guid": "375f9a93-a516-4e2a-8366-98d040b22a97",
        "placed": "2016-08-08T09:46:08+0000",
        "status": "PAYMENT_PROGRESS",
        "statusDisplay": "processing",
        "total": {
            "currencyIso": "USD",
            "formattedValue": "$35.87",
            "priceType": "BUY",
            "value": 35.87
        }
    },
    {
        "code": "14000090754",
        "guid": "82c9fde8-0b29-4fd0-bdd6-e8a522a399e0",
        "placed": "2016-08-08T09:03:42+0000",
        "status": "PAYMENT_PROGRESS",
        "statusDisplay": "processing",
        "total": {
            "currencyIso": "USD",
            "formattedValue": "$78.91",
            "priceType": "BUY",
            "value": 78.91
        }
    },
    {
        "code": "14000089568",
        "guid": "e38e46b7-b644-47c6-bb3d-010f68c0f9ed",
        "placed": "2016-08-02T12:14:03+0000",
        "status": "PAYMENT_PROGRESS",
        "statusDisplay": "processing",
        "total": {
            "currencyIso": "USD",
            "formattedValue": "$35.87",
            "priceType": "BUY",
            "value": 35.87
        }
    },
    {
        "code": "14000089566",
        "guid": "257f937f-70fb-4acf-b058-e6e7774ab41c",
        "placed": "2016-08-02T12:12:54+0000",
        "status": "PAYMENT_PROGRESS",
        "statusDisplay": "processing",
        "total": {
            "currencyIso": "USD",
            "formattedValue": "$35.87",
            "priceType": "BUY",
            "value": 35.87
        }
    },
    {
        "code": "14000089562",
        "guid": "336a628d-6893-4895-9bb2-65d5d26bb83c",
        "placed": "2016-08-02T12:09:10+0000",
        "status": "PAYMENT_PROGRESS",
        "statusDisplay": "processing",
        "total": {
            "currencyIso": "USD",
            "formattedValue": "$107.63",
            "priceType": "BUY",
            "value": 107.63
        }
    },
    {
        "code": "14000089560",
        "guid": "93fdb09e-d39f-4025-be7e-edc020cd5a51",
        "placed": "2016-08-02T12:06:51+0000",
        "status": "PAYMENT_PROGRESS",
        "statusDisplay": "processing",
        "total": {
            "currencyIso": "USD",
            "formattedValue": "$143.50",
            "priceType": "BUY",
            "value": 143.5
        }
    },
    {
        "code": "14000089555",
        "guid": "8eca9055-c101-4835-a692-c2b27c616e4a",
        "placed": "2016-08-02T11:36:35+0000",
        "status": "PAYMENT_PROGRESS",
        "statusDisplay": "processing",
        "total": {
            "currencyIso": "USD",
            "formattedValue": "$215.20",
            "priceType": "BUY",
            "value": 215.2
        }
    },
    {
        "code": "14000089549",
        "guid": "1ae68afa-240c-410b-9a80-0e5681a20450",
        "placed": "2016-08-02T11:24:31+0000",
        "status": "PAYMENT_PROGRESS",
        "statusDisplay": "processing",
        "total": {
            "currencyIso": "USD",
            "formattedValue": "$107.63",
            "priceType": "BUY",
            "value": 107.63
        }
    },
    {
        "code": "14000089546",
        "guid": "d4ea2935-bd5c-4928-864a-7ea6eed08230",
        "placed": "2016-08-02T11:20:05+0000",
        "status": "PAYMENT_PROGRESS",
        "statusDisplay": "processing",
        "total": {
            "currencyIso": "USD",
            "formattedValue": "$35.87",
            "priceType": "BUY",
            "value": 35.87
        }
    },
    {
        "code": "14000089429",
        "guid": "153141fa-8afd-45d7-bb72-179d8e4eb078",
        "placed": "2016-08-02T06:49:29+0000",
        "status": "PAYMENT_PROGRESS",
        "statusDisplay": "processing",
        "total": {
            "currencyIso": "USD",
            "formattedValue": "$35.87",
            "priceType": "BUY",
            "value": 35.87
        }
    },
    {
        "code": "14000088540",
        "guid": "21a31328-a71e-4091-8f4b-d341e197a963",
        "placed": "2016-07-28T17:35:22+0000",
        "status": "PAYMENT_PROGRESS",
        "statusDisplay": "processing",
        "total": {
            "currencyIso": "USD",
            "formattedValue": "$94.45",
            "priceType": "BUY",
            "value": 94.45
        }
    },
    {
        "code": "14000088534",
        "guid": "5dbb180a-b39f-43f3-947d-c3319496df73",
        "placed": "2016-07-28T16:52:31+0000",
        "status": "PAYMENT_PROGRESS",
        "statusDisplay": "processing",
        "total": {
            "currencyIso": "USD",
            "formattedValue": "$142.29",
            "priceType": "BUY",
            "value": 142.29
        }
    },
    {
        "code": "14000088337",
        "guid": "62f7a5bd-1f1b-4dba-9437-6143b443eaf7",
        "placed": "2016-07-28T05:47:16+0000",
        "status": "PAYMENT_PROGRESS",
        "statusDisplay": "processing",
        "total": {
            "currencyIso": "USD",
            "formattedValue": "$167.42",
            "priceType": "BUY",
            "value": 167.42
        }
    }
    ],
    "pagination": {
        "currentPage": 0,
        "pageSize": 20,
        "sort": "byDate",
        "totalPages": 5,
        "totalResults": 95
    },
    "sorts": [
    {
        "code": "byDate",
        "selected": true
    },
    {
        "code": "byOrderNumber",
        "selected": false
    }
    ]
}